<?xml version="1.0" encoding="utf-8"?>
<COLLADA xmlns:xsd="http://www.w3.org/2001/XMLSchema" xmlns:xsi="http://www.w3.org/2001/XMLSchema-instance" version="1.4.0" xmlns="http://www.collada.org/2005/11/COLLADASchema">
  <asset>
    <contributor>
      <authoring_tool>Minddesk Qubicle 2</authoring_tool>
      <comments>Get Qubicle at www.minddesk.com</comments>
    </contributor>
    <created>2015-04-111:11 PM13:11:41:114</created>
    <modified>2015-04-111:11 PM13:11:41:114</modified>
    <unit meter="0.01" />
  </asset>
  <library_images>
    <image id="tree2-image" name="tree2-image">
      <init_from>file:///Materials/tree2.png</init_from>
    </image>
  </library_images>
  <library_materials>
    <material id="tree2-material" name="tree2-material">
      <instance_effect url="#tree2-shader-fx" />
    </material>
  </library_materials>
  <library_effects>
    <effect id="tree2-shader-fx" name="tree2-shader-fx">
      <profile_COMMON>
        <newparam sid="tree2-image-surface">
          <surface type="2D">
            <init_from>tree2-image</init_from>
          </surface>
        </newparam>
        <newparam sid="tree2-image-sampler">
          <sampler2D>
            <source>tree2-image-surface</source>
            <wrap_s>WRAP</wrap_s>
            <wrap_t>WRAP</wrap_t>
            <minfilter>NEAREST</minfilter>
            <magfilter>NEAREST</magfilter>
          </sampler2D>
        </newparam>
        <technique sid="standard">
          <lambert>
            <ambient>
              <color sid="ambient">0.0 0.0 0.0 1.0</color>
            </ambient>
            <diffuse>
              <texture texcoord="CHANNEL0" texture="tree2-image-sampler" />
            </diffuse>
          </lambert>
        </technique>
      </profile_COMMON>
    </effect>
  </library_effects>
  <library_geometries>
    <geometry name="Box" id="Box-lib">
      <mesh>
        <source id="Box-position">
          <float_array id="Box-position-array" count="96">-2.5 1.5 0.5 -2.5 -0.5 0.5 -3.5 -0.5 0.5 -3.5 1.5 0.5 -1.5 -0.5 0.5 -1.5 -2.5 0.5 -2.5 -2.5 0.5 -1.5 1.5 -0.5 -1.5 -0.5 -0.5 -2.5 -0.5 -0.5 -2.5 1.5 -0.5 -0.5 1.5 0.5 -0.5 -0.5 0.5 -1.5 1.5 0.5 -1.5 2.5 0.5 -2.5 2.5 0.5 -3.5 1.5 1.5 -3.5 -0.5 1.5 -2.5 -0.5 1.5 -2.5 1.5 1.5 -2.5 -2.5 1.5 -1.5 -2.5 1.5 -1.5 -0.5 1.5 -2.5 1.5 2.5 -2.5 -0.5 2.5 -1.5 -0.5 2.5 -1.5 1.5 2.5 -1.5 1.5 1.5 -0.5 -0.5 1.5 -0.5 1.5 1.5 -2.5 2.5 1.5 -1.5 2.5 1.5 </float_array>
          <technique_common>
            <accessor source="Box-position-array" stride="3" count="32">
              <param name="X" type="float" />
              <param name="Y" type="float" />
              <param name="Z" type="float" />
            </accessor>
          </technique_common>
        </source>
        <source id="Box-normal">
          <float_array id="Box-normal-array" count="18">0.0 0.0 1.0 0.0 0.0 -1.0 -1.0 0.0 0.0 1.0 0.0 0.0 0.0 1.0 0.0 0.0 -1.0 0.0</float_array>
          <technique_common>
            <accessor source="Box-normal-array" stride="3" count="6">
              <param name="X" type="float" />
              <param name="Y" type="float" />
              <param name="Z" type="float" />
            </accessor>
          </technique_common>
        </source>
        <source id="Box-uv">
          <float_array id="Box-uv-array" count="240">0.03125 0.1875 0.03125 0.0625 0.0625 0.0625 0.0625 0.1875 0.125 0.1875 0.125 0.0625 0.15625 0.0625 0.15625 0.1875 0.21875 0.1875 0.21875 0.0625 0.25 0.0625 0.25 0.1875 0.3125 0.1875 0.3125 0.0625 0.34375 0.0625 0.34375 0.1875 0.40625 0.1875 0.40625 0.0625 0.4375 0.0625 0.4375 0.1875 0.5 0.1875 0.5 0.0625 0.53125 0.0625 0.53125 0.1875 0.59375 0.1875 0.59375 0.0625 0.625 0.0625 0.625 0.1875 0.6875 0.1875 0.6875 0.0625 0.71875 0.0625 0.71875 0.1875 0.78125 0.1875 0.78125 0.0625 0.8125 0.0625 0.8125 0.1875 0.875 0.1875 0.875 0.0625 0.90625 0.0625 0.90625 0.1875 0.03125 0.4375 0.03125 0.3125 0.0625 0.3125 0.0625 0.4375 0.125 0.4375 0.125 0.3125 0.15625 0.3125 0.15625 0.4375 0.21875 0.4375 0.21875 0.3125 0.25 0.3125 0.25 0.4375 0.3125 0.4375 0.3125 0.3125 0.34375 0.3125 0.34375 0.4375 0.40625 0.4375 0.40625 0.3125 0.4375 0.3125 0.4375 0.4375 0.5 0.4375 0.5 0.3125 0.53125 0.3125 0.53125 0.4375 0.59375 0.375 0.59375 0.3125 0.625 0.3125 0.625 0.375 0.6875 0.375 0.6875 0.3125 0.71875 0.3125 0.71875 0.375 0.78125 0.375 0.78125 0.3125 0.8125 0.3125 0.8125 0.375 0.875 0.375 0.875 0.3125 0.90625 0.3125 0.90625 0.375 0.03125 0.625 0.03125 0.5625 0.0625 0.5625 0.0625 0.625 0.125 0.625 0.125 0.5625 0.15625 0.5625 0.15625 0.625 0.21875 0.625 0.21875 0.5625 0.25 0.5625 0.25 0.625 0.3125 0.625 0.3125 0.5625 0.34375 0.5625 0.34375 0.625 0.40625 0.625 0.40625 0.5625 0.4375 0.5625 0.4375 0.625 0.5 0.625 0.5 0.5625 0.53125 0.5625 0.53125 0.625 0.59375 0.625 0.59375 0.5625 0.625 0.5625 0.625 0.625 0.6875 0.625 0.6875 0.5625 0.71875 0.5625 0.71875 0.625 0.78125 0.625 0.78125 0.5625 0.8125 0.5625 0.8125 0.625 0.875 0.625 0.875 0.5625 0.90625 0.5625 0.90625 0.625 </float_array>
          <technique_common>
            <accessor source="Box-uv-array" stride="2" count="120">
              <param name="S" type="float" />
              <param name="T" type="float" />
            </accessor>
          </technique_common>
        </source>
        <vertices id="Box-vertex">
          <input semantic="POSITION" source="#Box-position" />
        </vertices>
        <polylist material="tree2-material" count="30">
          <input offset="0" semantic="VERTEX" source="#Box-vertex" />
          <input offset="1" semantic="NORMAL" source="#Box-normal" />
          <input offset="2" semantic="TEXCOORD" source="#Box-uv" />
          <vcount>4 4 4 4 4 4 4 4 4 4 4 4 4 4 4 4 4 4 4 4 4 4 4 4 4 4 4 4 4 4 </vcount>
          <p>0 1 40 1 1 41 2 1 42 3 1 43 4 1 44 5 1 45 6 1 46 1 1 47 7 1 32 8 1 33 9 1 34 10 1 35 11 1 36 12 1 37 4 1 38 13 1 39 14 1 64 13 1 65 0 1 66 15 1 67 16 0 60 17 0 61 18 0 62 19 0 63 18 0 48 20 0 49 21 0 50 22 0 51 23 0 52 24 0 53 25 0 54 26 0 55 27 0 8 22 0 9 28 0 10 29 0 11 30 0 68 19 0 69 27 0 70 31 0 71 3 2 0 2 2 1 17 2 2 16 2 3 1 2 20 6 2 21 20 2 22 18 2 23 10 2 56 9 2 57 1 2 58 0 2 59 19 2 12 18 2 13 24 2 14 23 2 15 15 2 104 0 2 105 19 2 106 30 2 107 22 3 16 21 3 17 5 3 18 4 3 19 13 3 28 4 3 29 8 3 30 7 3 31 26 3 24 25 3 25 22 3 26 27 3 27 29 3 4 28 3 5 12 3 6 11 3 7 31 3 100 27 3 101 13 3 102 14 3 103 3 4 96 16 4 97 19 4 98 0 4 99 10 4 116 0 4 117 13 4 118 7 4 119 19 4 112 23 4 113 26 4 114 27 4 115 15 4 108 30 4 109 31 4 110 14 4 111 13 4 80 27 4 81 29 4 82 11 4 83 17 5 76 2 5 77 1 5 78 18 5 79 20 5 72 6 5 73 5 5 74 21 5 75 1 5 92 9 5 93 8 5 94 4 5 95 24 5 88 18 5 89 22 5 90 25 5 91 22 5 84 4 5 85 12 5 86 28 5 87 </p>
        </polylist>
      </mesh>
    </geometry>)
  </library_geometries>
  <library_visual_scenes>
    <visual_scene id="tree2-scene" name="tree2-scene">
      <node sid="Box" id="Box" name="Box">
        <translate sid="translate">0.50 2.50 0.50</translate>
        <instance_geometry url="#Box-lib">
          <bind_material>
            <technique_common>
              <instance_material symbol="tree2-material" target="#tree2-material" />
            </technique_common>
          </bind_material>
        </instance_geometry>
      </node>
    </visual_scene>
  </library_visual_scenes>
  <scene>
    <instance_visual_scene name="" sid="" url="#tree2-scene" />
  </scene>
</COLLADA>
