<?xml version="1.0" encoding="utf-8"?>
<COLLADA xmlns:xsd="http://www.w3.org/2001/XMLSchema" xmlns:xsi="http://www.w3.org/2001/XMLSchema-instance" version="1.4.0" xmlns="http://www.collada.org/2005/11/COLLADASchema">
  <asset>
    <contributor>
      <authoring_tool>Minddesk Qubicle 2</authoring_tool>
      <comments>Get Qubicle at www.minddesk.com</comments>
    </contributor>
    <created>2015-04-111:45 AM01:45:08:419</created>
    <modified>2015-04-111:45 AM01:45:08:419</modified>
    <unit meter="0.01" />
  </asset>
  <library_images>
    <image id="lumber millBuild-image" name="lumber millBuild-image">
      <init_from>file:///Materials/lumber millBuild.png</init_from>
    </image>
  </library_images>
  <library_materials>
    <material id="lumber millBuild-material" name="lumber millBuild-material">
      <instance_effect url="#lumber millBuild-shader-fx" />
    </material>
  </library_materials>
  <library_effects>
    <effect id="lumber millBuild-shader-fx" name="lumber millBuild-shader-fx">
      <profile_COMMON>
        <newparam sid="lumber millBuild-image-surface">
          <surface type="2D">
            <init_from>lumber millBuild-image</init_from>
          </surface>
        </newparam>
        <newparam sid="lumber millBuild-image-sampler">
          <sampler2D>
            <source>lumber millBuild-image-surface</source>
            <wrap_s>WRAP</wrap_s>
            <wrap_t>WRAP</wrap_t>
            <minfilter>NEAREST</minfilter>
            <magfilter>NEAREST</magfilter>
          </sampler2D>
        </newparam>
        <technique sid="standard">
          <lambert>
            <ambient>
              <color sid="ambient">0.0 0.0 0.0 1.0</color>
            </ambient>
            <diffuse>
              <texture texcoord="CHANNEL0" texture="lumber millBuild-image-sampler" />
            </diffuse>
          </lambert>
        </technique>
      </profile_COMMON>
    </effect>
  </library_effects>
  <library_geometries>
    <geometry name="Matrix" id="Matrix-lib">
      <mesh>
        <source id="Matrix-position">
          <float_array id="Matrix-position-array" count="96">10.0 -6.5 -8.0 10.0 -7.5 -8.0 3.0 -7.5 -8.0 3.0 -6.5 -8.0 3.0 -5.5 -7.0 3.0 -6.5 -7.0 0.0 -6.5 -7.0 0.0 -5.5 -7.0 3.0 -4.5 -6.0 3.0 -5.5 -6.0 1.0 -5.5 -6.0 1.0 -4.5 -6.0 3.0 -3.5 -6.0 2.0 -4.5 -6.0 2.0 -3.5 -6.0 3.0 -6.5 3.0 3.0 -7.5 3.0 10.0 -7.5 3.0 10.0 -6.5 3.0 0.0 -5.5 4.0 0.0 -6.5 4.0 3.0 -6.5 4.0 3.0 -5.5 4.0 1.0 -4.5 4.0 1.0 -5.5 4.0 3.0 -4.5 4.0 2.0 -3.5 4.0 2.0 -4.5 4.0 3.0 -3.5 4.0 3.0 -3.5 3.0 3.0 -5.5 3.0 1.0 -5.5 -7.0 </float_array>
          <technique_common>
            <accessor source="Matrix-position-array" stride="3" count="32">
              <param name="X" type="float" />
              <param name="Y" type="float" />
              <param name="Z" type="float" />
            </accessor>
          </technique_common>
        </source>
        <source id="Matrix-normal">
          <float_array id="Matrix-normal-array" count="18">0.0 0.0 1.0 0.0 0.0 -1.0 -1.0 0.0 0.0 1.0 0.0 0.0 0.0 1.0 0.0 0.0 -1.0 0.0</float_array>
          <technique_common>
            <accessor source="Matrix-normal-array" stride="3" count="6">
              <param name="X" type="float" />
              <param name="Y" type="float" />
              <param name="Z" type="float" />
            </accessor>
          </technique_common>
        </source>
        <source id="Matrix-uv">
          <float_array id="Matrix-uv-array" count="184">0.03125 0.375 0.03125 0.03125 0.25 0.03125 0.25 0.375 0.3125 0.375 0.3125 0.03125 0.53125 0.03125 0.53125 0.375 0.59375 0.375 0.59375 0.03125 0.6875 0.03125 0.6875 0.375 0.75 0.375 0.75 0.03125 0.78125 0.03125 0.78125 0.375 0.84375 0.34375 0.84375 0.03125 0.875 0.03125 0.875 0.34375 0.9375 0.34375 0.9375 0.03125 0.96875 0.03125 0.96875 0.34375 0.03125 0.53125 0.03125 0.4375 0.0625 0.4375 0.0625 0.53125 0.125 0.5 0.125 0.4375 0.40625 0.4375 0.40625 0.5 0.46875 0.46875 0.46875 0.4375 0.8125 0.4375 0.8125 0.46875 0.03125 0.625 0.03125 0.59375 0.375 0.59375 0.375 0.625 0.4375 0.625 0.4375 0.59375 0.78125 0.59375 0.78125 0.625 0.03125 0.71875 0.03125 0.6875 0.34375 0.6875 0.34375 0.71875 0.40625 0.71875 0.40625 0.6875 0.71875 0.6875 0.71875 0.71875 0.03125 0.8125 0.03125 0.78125 0.34375 0.78125 0.34375 0.8125 0.40625 0.8125 0.40625 0.78125 0.625 0.78125 0.625 0.8125 0.6875 0.8125 0.6875 0.78125 0.90625 0.78125 0.90625 0.8125 0.875 0.46875 0.875 0.4375 0.96875 0.4375 0.96875 0.46875 0.84375 0.625 0.84375 0.59375 0.9375 0.59375 0.9375 0.625 0.78125 0.71875 0.78125 0.6875 0.84375 0.6875 0.84375 0.71875 0.90625 0.71875 0.90625 0.6875 0.96875 0.6875 0.96875 0.71875 0.03125 0.90625 0.03125 0.875 0.09375 0.875 0.09375 0.90625 0.15625 0.90625 0.15625 0.875 0.1875 0.875 0.1875 0.90625 0.25 0.90625 0.25 0.875 0.28125 0.875 0.28125 0.90625 </float_array>
          <technique_common>
            <accessor source="Matrix-uv-array" stride="2" count="92">
              <param name="S" type="float" />
              <param name="T" type="float" />
            </accessor>
          </technique_common>
        </source>
        <vertices id="Matrix-vertex">
          <input semantic="POSITION" source="#Matrix-position" />
        </vertices>
        <polylist material="lumber millBuild-material" count="23">
          <input offset="0" semantic="VERTEX" source="#Matrix-vertex" />
          <input offset="1" semantic="NORMAL" source="#Matrix-normal" />
          <input offset="2" semantic="TEXCOORD" source="#Matrix-uv" />
          <vcount>4 4 4 4 4 4 4 4 4 4 4 4 4 4 4 4 4 4 4 4 4 4 4 </vcount>
          <p>0 1 60 1 1 61 2 1 62 3 1 63 4 1 68 5 1 69 6 1 70 7 1 71 8 1 72 9 1 73 10 1 74 11 1 75 12 1 88 8 1 89 13 1 90 14 1 91 15 0 56 16 0 57 17 0 58 18 0 59 19 0 64 20 0 65 21 0 66 22 0 67 23 0 76 24 0 77 22 0 78 25 0 79 26 0 84 27 0 85 25 0 86 28 0 87 7 2 36 6 2 37 20 2 38 19 2 39 11 2 44 10 2 45 24 2 46 23 2 47 14 2 48 13 2 49 27 2 50 26 2 51 3 2 32 2 2 33 16 2 34 15 2 35 29 3 28 30 3 29 9 3 30 12 3 31 30 3 52 15 3 53 5 3 54 4 3 55 18 3 40 17 3 41 1 3 42 0 3 43 28 3 24 21 3 25 15 3 26 29 3 27 3 4 0 15 4 1 18 4 2 0 4 3 7 4 12 19 4 13 24 4 14 31 4 15 11 4 20 23 4 21 27 4 22 13 4 23 14 4 16 26 4 17 28 4 18 12 4 19 31 4 80 10 4 81 9 4 82 4 4 83 16 5 4 2 5 5 1 5 6 17 5 7 20 5 8 6 5 9 5 5 10 21 5 11 </p>
        </polylist>
      </mesh>
    </geometry>)
  </library_geometries>
  <library_visual_scenes>
    <visual_scene id="lumber millBuild-scene" name="lumber millBuild-scene">
      <node sid="Matrix" id="Matrix" name="Matrix">
        <translate sid="translate">3.00 7.50 3.00</translate>
        <instance_geometry url="#Matrix-lib">
          <bind_material>
            <technique_common>
              <instance_material symbol="lumber millBuild-material" target="#lumber millBuild-material" />
            </technique_common>
          </bind_material>
        </instance_geometry>
      </node>
    </visual_scene>
  </library_visual_scenes>
  <scene>
    <instance_visual_scene name="" sid="" url="#lumber millBuild-scene" />
  </scene>
</COLLADA>
