<?xml version="1.0" encoding="utf-8"?>
<COLLADA xmlns:xsd="http://www.w3.org/2001/XMLSchema" xmlns:xsi="http://www.w3.org/2001/XMLSchema-instance" version="1.4.0" xmlns="http://www.collada.org/2005/11/COLLADASchema">
  <asset>
    <contributor>
      <authoring_tool>Minddesk Qubicle 2</authoring_tool>
      <comments>Get Qubicle at www.minddesk.com</comments>
    </contributor>
    <created>2015-04-113:04 AM03:04:20:450</created>
    <modified>2015-04-113:04 AM03:04:20:450</modified>
    <unit meter="0.01" />
  </asset>
  <library_images>
    <image id="water-image" name="water-image">
      <init_from>file:///Materials/water.png</init_from>
    </image>
  </library_images>
  <library_materials>
    <material id="water-material" name="water-material">
      <instance_effect url="#water-shader-fx" />
    </material>
  </library_materials>
  <library_effects>
    <effect id="water-shader-fx" name="water-shader-fx">
      <profile_COMMON>
        <newparam sid="water-image-surface">
          <surface type="2D">
            <init_from>water-image</init_from>
          </surface>
        </newparam>
        <newparam sid="water-image-sampler">
          <sampler2D>
            <source>water-image-surface</source>
            <wrap_s>WRAP</wrap_s>
            <wrap_t>WRAP</wrap_t>
            <minfilter>NEAREST</minfilter>
            <magfilter>NEAREST</magfilter>
          </sampler2D>
        </newparam>
        <technique sid="standard">
          <lambert>
            <ambient>
              <color sid="ambient">0.0 0.0 0.0 1.0</color>
            </ambient>
            <diffuse>
              <texture texcoord="CHANNEL0" texture="water-image-sampler" />
            </diffuse>
          </lambert>
        </technique>
      </profile_COMMON>
    </effect>
  </library_effects>
  <library_geometries>
    <geometry name="Box" id="Box-lib">
      <mesh>
        <source id="Box-position">
          <float_array id="Box-position-array" count="378">-5.0 8.5 -6.0 -5.0 7.5 -6.0 -8.0 7.5 -6.0 -8.0 8.5 -6.0 4.0 8.5 -4.0 4.0 7.5 -4.0 0.0 7.5 -4.0 0.0 8.5 -4.0 -13.0 8.5 -2.0 -13.0 6.5 -2.0 -14.0 6.5 -2.0 -14.0 8.5 -2.0 -8.0 8.5 -5.0 -8.0 7.5 -5.0 -10.0 7.5 -5.0 -10.0 8.5 -5.0 -2.0 8.5 -6.0 -2.0 7.5 -6.0 -4.0 7.5 -6.0 -4.0 8.5 -6.0 0.0 8.5 -5.0 0.0 7.5 -5.0 -2.0 7.5 -5.0 -2.0 8.5 -5.0 7.0 8.5 -2.0 7.0 7.5 -2.0 5.0 7.5 -2.0 5.0 8.5 -2.0 -12.0 8.5 -2.0 -12.0 7.5 -2.0 -13.0 7.5 -2.0 -11.0 8.5 -3.0 -11.0 7.5 -3.0 -12.0 7.5 -3.0 -12.0 8.5 -3.0 -10.0 8.5 -4.0 -10.0 7.5 -4.0 -11.0 7.5 -4.0 -11.0 8.5 -4.0 -4.0 8.5 -7.0 -4.0 7.5 -7.0 -5.0 7.5 -7.0 -5.0 8.5 -7.0 5.0 8.5 -3.0 5.0 7.5 -3.0 4.0 7.5 -3.0 4.0 8.5 -3.0 -9.0 8.5 -3.0 -9.0 7.5 -3.0 -4.0 7.5 -3.0 -4.0 8.5 -3.0 0.0 8.5 5.0 0.0 7.5 5.0 3.0 7.5 5.0 3.0 8.5 5.0 -14.0 8.5 0.0 -14.0 6.5 0.0 -13.0 6.5 0.0 -13.0 8.5 0.0 -13.0 7.5 0.0 -11.0 7.5 0.0 -11.0 8.5 0.0 3.0 8.5 6.0 3.0 7.5 6.0 5.0 7.5 6.0 5.0 8.5 6.0 -11.0 8.5 -1.0 -11.0 7.5 -1.0 -10.0 7.5 -1.0 -10.0 8.5 -1.0 -10.0 8.5 -2.0 -10.0 7.5 -2.0 -9.0 7.5 -2.0 -9.0 8.5 -2.0 -4.0 8.5 -2.0 -4.0 7.5 -2.0 -3.0 7.5 -2.0 -3.0 8.5 -2.0 -3.0 8.5 -1.0 -3.0 7.5 -1.0 -2.0 7.5 -1.0 -2.0 8.5 -1.0 -2.0 8.5 3.0 -2.0 7.5 3.0 -1.0 7.5 3.0 -1.0 8.5 3.0 -1.0 8.5 6.0 -1.0 7.5 6.0 0.0 7.5 6.0 0.0 8.5 6.0 5.0 8.5 5.0 5.0 7.5 5.0 6.0 7.5 5.0 6.0 8.5 5.0 6.0 8.5 3.0 6.0 7.5 3.0 7.0 7.5 3.0 7.0 8.5 3.0 4.0 8.5 5.0 -3.0 8.5 -5.0 0.0 8.5 -1.0 -8.0 8.5 -4.0 -5.0 8.5 -4.0 0.0 8.5 3.0 6.0 8.5 -2.0 -12.0 8.5 0.0 -10.0 8.5 -3.0 -8.0 8.5 -3.0 -4.0 8.5 -4.0 -5.0 8.5 -5.0 -4.0 8.5 -5.0 -3.0 8.5 -4.0 4.0 7.5 5.0 -3.0 7.5 -5.0 0.0 7.5 -1.0 -8.0 7.5 -4.0 -5.0 7.5 -4.0 0.0 7.5 3.0 6.0 7.5 -2.0 -12.0 7.5 0.0 -10.0 7.5 -3.0 -8.0 7.5 -3.0 -4.0 7.5 -4.0 -5.0 7.5 -5.0 -4.0 7.5 -5.0 -3.0 7.5 -4.0 </float_array>
          <technique_common>
            <accessor source="Box-position-array" stride="3" count="126">
              <param name="X" type="float" />
              <param name="Y" type="float" />
              <param name="Z" type="float" />
            </accessor>
          </technique_common>
        </source>
        <source id="Box-normal">
          <float_array id="Box-normal-array" count="18">0.0 0.0 1.0 0.0 0.0 -1.0 -1.0 0.0 0.0 1.0 0.0 0.0 0.0 1.0 0.0 0.0 -1.0 0.0</float_array>
          <technique_common>
            <accessor source="Box-normal-array" stride="3" count="6">
              <param name="X" type="float" />
              <param name="Y" type="float" />
              <param name="Z" type="float" />
            </accessor>
          </technique_common>
        </source>
        <source id="Box-uv">
          <float_array id="Box-uv-array" count="704">0.015625 0.3125 0.015625 0.03125 0.078125 0.03125 0.078125 0.3125 0.109375 0.3125 0.109375 0.03125 0.171875 0.03125 0.171875 0.3125 0.203125 0.28125 0.203125 0.03125 0.21875 0.03125 0.21875 0.28125 0.25 0.28125 0.25 0.03125 0.265625 0.03125 0.265625 0.28125 0.296875 0.25 0.296875 0.03125 0.3125 0.03125 0.3125 0.25 0.34375 0.25 0.34375 0.03125 0.359375 0.03125 0.359375 0.25 0.390625 0.1875 0.390625 0.03125 0.40625 0.03125 0.40625 0.1875 0.4375 0.1875 0.4375 0.03125 0.453125 0.03125 0.453125 0.1875 0.484375 0.15625 0.484375 0.03125 0.53125 0.03125 0.53125 0.15625 0.5625 0.15625 0.5625 0.03125 0.609375 0.03125 0.609375 0.15625 0.640625 0.15625 0.640625 0.03125 0.671875 0.03125 0.671875 0.15625 0.703125 0.15625 0.703125 0.03125 0.734375 0.03125 0.734375 0.15625 0.765625 0.125 0.765625 0.03125 0.78125 0.03125 0.78125 0.125 0.8125 0.125 0.8125 0.03125 0.828125 0.03125 0.828125 0.125 0.859375 0.125 0.859375 0.03125 0.875 0.03125 0.875 0.125 0.90625 0.125 0.90625 0.03125 0.921875 0.03125 0.921875 0.125 0.953125 0.125 0.953125 0.03125 0.96875 0.03125 0.96875 0.125 0.015625 0.46875 0.015625 0.375 0.03125 0.375 0.03125 0.46875 0.0625 0.4375 0.0625 0.375 0.109375 0.375 0.109375 0.4375 0.140625 0.4375 0.140625 0.375 0.1875 0.375 0.1875 0.4375 0.21875 0.4375 0.21875 0.375 0.25 0.375 0.25 0.4375 0.28125 0.4375 0.28125 0.375 0.3125 0.375 0.3125 0.4375 0.34375 0.4375 0.34375 0.375 0.375 0.375 0.375 0.4375 0.40625 0.4375 0.40625 0.375 0.4375 0.375 0.4375 0.4375 0.46875 0.4375 0.46875 0.375 0.484375 0.375 0.484375 0.4375 0.515625 0.4375 0.515625 0.375 0.53125 0.375 0.53125 0.4375 0.5625 0.4375 0.5625 0.375 0.578125 0.375 0.578125 0.4375 0.609375 0.4375 0.609375 0.375 0.625 0.375 0.625 0.4375 0.65625 0.4375 0.65625 0.375 0.671875 0.375 0.671875 0.4375 0.703125 0.4375 0.703125 0.375 0.71875 0.375 0.71875 0.4375 0.75 0.4375 0.75 0.375 0.765625 0.375 0.765625 0.4375 0.796875 0.4375 0.796875 0.375 0.8125 0.375 0.8125 0.4375 0.84375 0.40625 0.84375 0.375 0.921875 0.375 0.921875 0.40625 0.015625 0.5625 0.015625 0.53125 0.09375 0.53125 0.09375 0.5625 0.125 0.5625 0.125 0.53125 0.1875 0.53125 0.1875 0.5625 0.21875 0.5625 0.21875 0.53125 0.28125 0.53125 0.28125 0.5625 0.3125 0.5625 0.3125 0.53125 0.375 0.53125 0.375 0.5625 0.40625 0.5625 0.40625 0.53125 0.46875 0.53125 0.46875 0.5625 0.5 0.5625 0.5 0.53125 0.546875 0.53125 0.546875 0.5625 0.578125 0.5625 0.578125 0.53125 0.625 0.53125 0.625 0.5625 0.65625 0.5625 0.65625 0.53125 0.703125 0.53125 0.703125 0.5625 0.953125 0.40625 0.953125 0.375 0.984375 0.375 0.984375 0.40625 0.734375 0.5625 0.734375 0.53125 0.765625 0.53125 0.765625 0.5625 0.796875 0.5625 0.796875 0.53125 0.828125 0.53125 0.828125 0.5625 0.859375 0.5625 0.859375 0.53125 0.890625 0.53125 0.890625 0.5625 0.921875 0.5625 0.921875 0.53125 0.953125 0.53125 0.953125 0.5625 0.015625 0.65625 0.015625 0.625 0.046875 0.625 0.046875 0.65625 0.078125 0.65625 0.078125 0.625 0.109375 0.625 0.109375 0.65625 0.140625 0.65625 0.140625 0.625 0.171875 0.625 0.171875 0.65625 0.203125 0.65625 0.203125 0.625 0.234375 0.625 0.234375 0.65625 0.265625 0.65625 0.265625 0.625 0.296875 0.625 0.296875 0.65625 0.328125 0.65625 0.328125 0.625 0.359375 0.625 0.359375 0.65625 0.390625 0.65625 0.390625 0.625 0.421875 0.625 0.421875 0.65625 0.453125 0.65625 0.453125 0.625 0.484375 0.625 0.484375 0.65625 0.515625 0.65625 0.515625 0.625 0.546875 0.625 0.546875 0.65625 0.578125 0.65625 0.578125 0.625 0.59375 0.625 0.59375 0.65625 0.625 0.65625 0.625 0.625 0.640625 0.625 0.640625 0.65625 0.671875 0.65625 0.671875 0.625 0.6875 0.625 0.6875 0.65625 0.71875 0.65625 0.71875 0.625 0.734375 0.625 0.734375 0.65625 0.765625 0.65625 0.765625 0.625 0.78125 0.625 0.78125 0.65625 0.8125 0.65625 0.8125 0.625 0.828125 0.625 0.828125 0.65625 0.859375 0.65625 0.859375 0.625 0.875 0.625 0.875 0.65625 0.90625 0.65625 0.90625 0.625 0.921875 0.625 0.921875 0.65625 0.953125 0.65625 0.953125 0.625 0.96875 0.625 0.96875 0.65625 0.015625 0.75 0.015625 0.71875 0.03125 0.71875 0.03125 0.75 0.0625 0.75 0.0625 0.71875 0.078125 0.71875 0.078125 0.75 0.109375 0.75 0.109375 0.71875 0.125 0.71875 0.125 0.75 0.15625 0.75 0.15625 0.71875 0.171875 0.71875 0.171875 0.75 0.203125 0.75 0.203125 0.71875 0.21875 0.71875 0.21875 0.75 0.25 0.75 0.25 0.71875 0.265625 0.71875 0.265625 0.75 0.296875 0.75 0.296875 0.71875 0.3125 0.71875 0.3125 0.75 0.34375 0.75 0.34375 0.71875 0.359375 0.71875 0.359375 0.75 0.390625 0.75 0.390625 0.71875 0.40625 0.71875 0.40625 0.75 0.4375 0.75 0.4375 0.71875 0.453125 0.71875 0.453125 0.75 0.484375 0.75 0.484375 0.71875 0.5 0.71875 0.5 0.75 0.53125 0.75 0.53125 0.71875 0.546875 0.71875 0.546875 0.75 0.578125 0.75 0.578125 0.71875 0.59375 0.71875 0.59375 0.75 0.625 0.75 0.625 0.71875 0.640625 0.71875 0.640625 0.75 0.671875 0.75 0.671875 0.71875 0.6875 0.71875 0.6875 0.75 0.71875 0.75 0.71875 0.71875 0.734375 0.71875 0.734375 0.75 0.765625 0.75 0.765625 0.71875 0.78125 0.71875 0.78125 0.75 0.8125 0.75 0.8125 0.71875 0.828125 0.71875 0.828125 0.75 0.859375 0.75 0.859375 0.71875 0.875 0.71875 0.875 0.75 0.90625 0.75 0.90625 0.71875 0.921875 0.71875 0.921875 0.75 0.953125 0.75 0.953125 0.71875 0.96875 0.71875 0.96875 0.75 0.015625 0.84375 0.015625 0.8125 0.03125 0.8125 0.03125 0.84375 0.0625 0.84375 0.0625 0.8125 0.078125 0.8125 0.078125 0.84375 0.109375 0.84375 0.109375 0.8125 0.125 0.8125 0.125 0.84375 </float_array>
          <technique_common>
            <accessor source="Box-uv-array" stride="2" count="352">
              <param name="S" type="float" />
              <param name="T" type="float" />
            </accessor>
          </technique_common>
        </source>
        <vertices id="Box-vertex">
          <input semantic="POSITION" source="#Box-position" />
        </vertices>
        <polylist material="water-material" count="88">
          <input offset="0" semantic="VERTEX" source="#Box-vertex" />
          <input offset="1" semantic="NORMAL" source="#Box-normal" />
          <input offset="2" semantic="TEXCOORD" source="#Box-uv" />
          <vcount>4 4 4 4 4 4 4 4 4 4 4 4 4 4 4 4 4 4 4 4 4 4 4 4 4 4 4 4 4 4 4 4 4 4 4 4 4 4 4 4 4 4 4 4 4 4 4 4 4 4 4 4 4 4 4 4 4 4 4 4 4 4 4 4 4 4 4 4 4 4 4 4 4 4 4 4 4 4 4 4 4 4 4 4 4 4 4 4 </vcount>
          <p>0 1 160 1 1 161 2 1 162 3 1 163 4 1 148 5 1 149 6 1 150 7 1 151 8 1 108 9 1 109 10 1 110 11 1 111 12 1 188 13 1 189 14 1 190 15 1 191 16 1 208 17 1 209 18 1 210 19 1 211 20 1 216 21 1 217 22 1 218 23 1 219 24 1 212 25 1 213 26 1 214 27 1 215 28 1 244 29 1 245 30 1 246 8 1 247 31 1 228 32 1 229 33 1 230 34 1 231 35 1 220 36 1 221 37 1 222 38 1 223 39 1 224 40 1 225 41 1 226 42 1 227 43 1 240 44 1 241 45 1 242 46 1 243 47 0 128 48 0 129 49 0 130 50 0 131 51 0 152 52 0 153 53 0 154 54 0 155 55 0 104 56 0 105 57 0 106 58 0 107 58 0 176 59 0 177 60 0 178 61 0 179 62 0 172 63 0 173 64 0 174 65 0 175 66 0 248 67 0 249 68 0 250 69 0 251 70 0 256 71 0 257 72 0 258 73 0 259 74 0 252 75 0 253 76 0 254 77 0 255 78 0 236 79 0 237 80 0 238 81 0 239 82 0 232 83 0 233 84 0 234 85 0 235 86 0 260 87 0 261 88 0 262 89 0 263 90 0 320 91 0 321 92 0 322 93 0 323 94 0 324 95 0 325 96 0 326 97 0 327 11 2 92 10 2 93 56 2 94 55 2 95 81 2 140 80 2 141 83 2 142 82 2 143 85 2 156 84 2 157 87 2 158 86 2 159 34 2 316 33 2 317 29 2 318 28 2 319 38 2 308 37 2 309 32 2 310 31 2 311 15 2 312 14 2 313 36 2 314 35 2 315 3 2 328 2 2 329 13 2 330 12 2 331 42 2 344 41 2 345 1 2 346 0 2 347 50 2 348 49 2 349 75 2 350 74 2 351 77 2 340 76 2 341 79 2 342 78 2 343 54 2 332 53 2 333 63 2 334 62 2 335 97 3 132 96 3 133 25 3 134 24 3 135 59 3 164 57 3 165 9 3 166 30 3 167 93 3 168 92 3 169 95 3 170 94 3 171 61 3 336 60 3 337 67 3 338 66 3 339 69 3 276 68 3 277 71 3 278 70 3 279 73 3 280 72 3 281 48 3 282 47 3 283 19 3 272 18 3 273 40 3 274 39 3 275 23 3 264 22 3 265 17 3 266 16 3 267 7 3 268 6 3 269 21 3 270 20 3 271 89 3 284 88 3 285 52 3 286 51 3 287 46 3 300 45 3 301 5 3 302 4 3 303 27 3 304 26 3 305 44 3 306 43 3 307 65 3 296 64 3 297 91 3 298 90 3 299 7 4 4 51 4 5 98 4 6 4 4 7 99 4 32 78 4 33 100 4 34 20 4 35 3 4 72 101 4 73 102 4 74 0 4 75 81 4 40 82 4 41 103 4 42 100 4 43 46 4 8 98 4 9 90 4 10 43 4 11 27 4 20 90 4 21 93 4 22 104 4 23 104 4 28 94 4 29 97 4 30 24 4 31 11 4 88 55 4 89 105 4 90 28 4 91 34 4 68 105 4 69 61 4 70 31 4 71 38 4 48 66 4 49 69 4 50 35 4 51 15 4 80 106 4 81 107 4 82 12 4 83 101 4 144 107 4 145 50 4 146 108 4 147 85 4 52 86 4 53 89 4 54 103 4 55 42 4 124 109 4 125 110 4 126 39 4 127 109 4 192 102 4 193 111 4 194 99 4 195 19 4 204 110 4 205 23 4 206 16 4 207 108 4 120 74 4 121 77 4 122 111 4 123 54 4 200 62 4 201 65 4 202 90 4 203 106 4 288 70 4 289 73 4 290 47 4 291 52 5 0 6 5 1 5 5 2 112 5 3 79 5 36 113 5 37 21 5 38 114 5 39 115 5 76 2 5 77 1 5 78 116 5 79 83 5 44 80 5 45 114 5 46 117 5 47 112 5 12 45 5 13 44 5 14 91 5 15 91 5 16 26 5 17 118 5 18 92 5 19 95 5 24 118 5 25 25 5 26 96 5 27 119 5 64 33 5 65 32 5 66 60 5 67 67 5 60 37 5 61 36 5 62 68 5 63 120 5 84 14 5 85 13 5 86 121 5 87 121 5 136 115 5 137 122 5 138 49 5 139 87 5 56 84 5 57 117 5 58 88 5 59 56 5 112 10 5 113 9 5 114 57 5 115 59 5 100 30 5 101 29 5 102 119 5 103 123 5 116 41 5 117 40 5 118 124 5 119 116 5 196 123 5 197 113 5 198 125 5 199 124 5 180 18 5 181 17 5 182 22 5 183 75 5 96 122 5 97 125 5 98 76 5 99 63 5 184 53 5 185 91 5 186 64 5 187 71 5 292 120 5 293 48 5 294 72 5 295 </p>
        </polylist>
      </mesh>
    </geometry>)
  </library_geometries>
  <library_visual_scenes>
    <visual_scene id="water-scene" name="water-scene">
      <node sid="Box" id="Box" name="Box">
        <translate sid="translate">-1.00 6.50 0.00</translate>
        <instance_geometry url="#Box-lib">
          <bind_material>
            <technique_common>
              <instance_material symbol="water-material" target="#water-material" />
            </technique_common>
          </bind_material>
        </instance_geometry>
      </node>
    </visual_scene>
  </library_visual_scenes>
  <scene>
    <instance_visual_scene name="" sid="" url="#water-scene" />
  </scene>
</COLLADA>
